{
	"name": "wesizer",
	"description": "provides shortcuts to quickly resize and move windows.",
	"uuid": "wesizer@amir.h.bakhtiary.gmail.com",
	"shell-version": [
		"3.28.1"
	],
	"settings-schema": "org.gnome.shell.extensions.wesizer"
}
